*** Darwin 5x5 ***
Turn = 0.
  01234
0 fffff
1 fffff
2 fffff
3 fffff
4 fffff

*** Darwin 12x12 ***
Turn = 0.
  012345678901
0 rfrhthhffthf
1 rhfttttfffff
2 rrrrttthhhhh
3 hffffrrrrhhf
4 rttttttrrrff
5 frtrhhhhhhrf
6 rrrrrrrrrfff
7 rrfffffftttt
8 tttrfhtffffr
9 frrrrrrfffff
0 hhhhhhhhhhrr
1 hhfffffffttt

*** Darwin 12x12 ***
Turn = 0.
  012345678901
0 rfrhthhffthf
1 rhfttttfffff
2 rrrrttthhhhh
3 hffffrrrrhhf
4 rttttttrrrff
5 frtrhhhhhhrf
6 rrrrrrrrrfff
7 rrfffff.....
8 tttrfhtff...
9 ..rrrrrfff..
0 hhhhhhhhh...
1 hhfffffffttt

Turn = 3.
  012345678901
0 rrrttttttthf
1 rrrrtttrttff
2 rrrttrrrtthh
3 rrttrrrrttrr
4 rrtttrrrrrrr
5 rrrrttrrrrrr
6 rrrrrrrrrrrr
7 rrrrtt..r...
8 ttttrrttf...
9 rr..rtttff..
0 hhhhrrrrh...
1 hhffrrrrtttt

Turn = 6.
  012345678901
0 rrtttttttttf
1 rrrttttttttf
2 rrrttttttttr
3 rrrrttttttrr
4 rrrrrrtrtrrr
5 rrrrrrt.rrrr
6 rrrrrr.r.rr.
7 rrrrrrrrrr..
8 rrr.ttrrr.r.
9 rrrrrrrrrf..
0 hhhh.rrrr...
1 hhffrrrrrttt

Turn = 9.
  012345678901
0 rrrttttttttt
1 rrttttttttrt
2 rtttrrrrtrtr
3 rrrrrrtttrrr
4 rrrtrrtttrrr
5 rrrrrrr.rt..
6 rrr.rrrrr...
7 rrrrrrrrr.r.
8 rrrrrrr.rr.r
9 rrrrrrrrrrr.
0 hhrrrrrrrrr.
1 hhrrr.r.rrrr

Turn = 12.
  012345678901
0 rrtttttttttt
1 rrtttttttttt
2 rrrrrtttttrr
3 rrrrrtttttrr
4 rrrrrtrtrr..
5 r.rrrrrr.rr.
6 rrrrrrrr..r.
7 rrrrrrrr.rrr
8 rrrrrrr.rrr.
9 rrrrrrr.rrr.
0 rrrrrr.rrrrr
1 rrrrr.rrrrrr

Turn = 15.
  012345678901
0 rrrttttttttt
1 rrtttttttttt
2 rrrrrttttttt
3 rrrrrttttt.t
4 rrrrrrrtttt.
5 .rrrrrr.rtt.
6 rrrrrrr.rrr.
7 rrrrrrr.rrr.
8 rrrrrr.rrrrr
9 rrrrrr..rrrr
0 rrrrrrr.rr.r
1 rrrr.rrrrrrr

*** Darwin 13x13 ***
Turn = 0.
  0123456789012
0 .............
1 .............
2 ....ttt.hhhh.
3 hffffrrrrhhf.
4 rttttttrrrff.
5 frtrhhhhhhrf.
6 rrrrrrrrrfff.
7 rrfffff......
8 tttrfhtff....
9 ..rrrrrfff...
0 hhhhhhhhh....
1 hhfffffffttt.
2 .............

Turn = 10.
  0123456789012
0 rrr.r...rrr.r
1 r..r..t..r.r.
2 ....tttt....h
3 ..ttrtr....r.
4 rrrrttrrrrr..
5 rrrrrrrr..r..
6 r.rrrtt.r....
7 rr.rrttrt....
8 ..r.rrrtt....
9 rrrrrr.tttrr.
0 .rrrrr.r..t.r
1 rrrr.r.r.ttt.
2 rrr..rrr.r...

Turn = 20.
  0123456789012
0 r.rrrr..rrr..
1 .rrrr.tr..rr.
2 ...rrrrr....h
3 rrr.rrrr.....
4 .rrr.r.......
5 rrrrrr.r.r.r.
6 rrrrr....rrr.
7 r.rrr..r.tr..
8 r.rrr..rtr..r
9 .rrrrr.rrr...
0 r.r.r..rr.r.t
1 rrrrrr...tttt
2 rrrrrrr..ttt.

Turn = 30.
  0123456789012
0 r...rrr......
1 rrr..rrr.....
2 rr.rr..rrr...
3 rrr.rrr.r...r
4 rrrrrrrrr..rr
5 rr.rrrrr...r.
6 r.r.rrr......
7 rrrrrr....r.r
8 rrr.r..rr....
9 rr..r.r.rr..r
0 rrr.rrr...rr.
1 rrrrr.rr.rrrr
2 rr.r.rrrrrrrr

Turn = 40.
  0123456789012
0 rrrrrrrr..rrr
1 r.r.rrrrrr..r
2 rr.rr.rr.....
3 rr..r.r.r..r.
4 rrrrrrr.....r
5 rrrrrr.......
6 rrr......r...
7 rr.....rr...r
8 rrrr.r.r..r.r
9 rrrrrr..r...r
0 rrrrr...r..r.
1 .rrrrrrrrr.rr
2 rrrrrrr.r.rrr

Turn = 50.
  0123456789012
0 rrrrrrr..r.r.
1 rrrrr.rrr.r.r
2 rrr...r.rr..r
3 rrrrrr..r....
4 rrrrr..r.r...
5 rrrr.rr.rr.r.
6 rr..rr..r.r..
7 .rrr...r.r...
8 rr.r.rr.rrrr.
9 r.r.rr..r..rr
0 rrrr.rrrrrrrr
1 rr.r..r...r..
2 .r.rrrr.rr...

*** Darwin 20x20 ***
Turn = 0.
  01234567890123456789
0 rfrhthhffthf........
1 rhfttttfffff........
2 rrrrttthhhhh........
3 hffffrrrrhhf........
4 rttttttrrrff........
5 frtrhhhhhhrf........
6 rrrrrrrrrfff........
7 rrfffff.............
8 tttrfhtff...........
9 ..rrrrrfff..........
0 .hhhhhhhh...........
1 ....fffffttt........
2 ....................
3 ....................
4 ....................
5 ....................
6 ....................
7 ....................
8 ....................
9 ....................

Turn = 4.
  01234567890123456789
0 rrrttttttthf........
1 rrrrttttttff........
2 rrrttttrtth....h....
3 rrrtrrrrtt..r.r.....
4 rrrrttrrrrrr.r......
5 frrrttrrrrrr........
6 rrrrrrrrrrr.........
7 rrrrrr...r..........
8 rr.rrtttt...........
9 rrrr.rtttf..........
0 ....rr.hh...........
1 ...r..rftttt........
2 ....................
3 ....r.r.............
4 .hhh................
5 ....................
6 ....................
7 ....................
8 ....................
9 ....................

Turn = 8.
  01234567890123456789
0 rrrttttttttt........
1 rrrrtttttttt........
2 rrrrrtttttt........h
3 rrrrrrrtttt.....r.r.
4 rrrrrrrtttt....r.r..
5 rrrrtr..rtt.........
6 rrrrrrrr....r.......
7 rr.rrrrrrr...r......
8 rr.rrrrtt...........
9 r.rr.rtttt..........
0 ......rht...........
1 .r.....ttttt........
2 r...r...............
3 .r..................
4 ....................
5 ......r.............
6 ....................
7 ....r.r.............
8 .hhh................
9 ....................

Turn = 12.
  01234567890123456789
0 rrrrrrtttttt........
1 rrrrtttttttt........
2 rrrrttttttt.......rh
3 rrrrrtttttt.......r.
4 rrrrr.rrttt.......r.
5 rrrrrrrr.tt........r
6 rrrrrr.r..r.....r...
7 rrr...rrr........r..
8 .rrrrrrrrr..........
9 r....rr.rr..........
0 ....rrrrt...........
1 r.....r.tttt........
2 .r..r...............
3 r...................
4 ....................
5 ....................
6 r...r...............
7 .r..................
8 ......r.............
9 .hhh.r.r............

Turn = 16.
  01234567890123456789
0 rrrtrrtttttt......rr
1 rrrrttrttttt........
2 rrrrtrttttt........h
3 rrrrrtttttt...r.....
4 rrrrr.rrrrt.........
5 rrrrrrrrrrt.......r.
6 rr.r.rr....r..r....r
7 rrr...r....r........
8 rr...rr.............
9 ...r..r.r....r.....r
0 ....rrr...t.........
1 ........tttt........
2 ..rrrr.r............
3 ........r...........
4 ....rr.r............
5 r...................
6 .r..r...............
7 r...................
8 r.........r.........
9 rrhhr....r.r........

Turn = 20.
  01234567890123456789
0 rrrrrrrttttt...r....
1 rrrrrrtttttt......rr
2 rr.r.ttrttt.........
3 rrrrrrrrttrr.......r
4 rrrr.rrrttt.........
5 rrrrrrrtttt.........
6 rrrrr.r..t.....r..r.
7 rrrr..r........r....
8 .rr.................
9 ..r.........r....r..
0 ..........t........r
1 r.......tttt........
2 .r..................
3 ...r...............r
4 ....rr..............
5 ....................
6 r.rrrr.r............
7 r.r.r...r...........
8 rr.r.r.r......r.....
9 rrrr.........r.r....

*** Darwin 10x10 ***
Turn = 0.
  0123456789
0 r.......r.
1 .t........
2 ..tr......
3 ..fht.....
4 ..h.hf.rf.
5 .....t....
6 ......h...
7 ....h..f..
8 ......h.f.
9 .........t

Turn = 1.
  0123456789
0 ........r.
1 rt........
2 ..tt......
3 ..ftt.....
4 ....hf.r.r
5 ..h..t....
6 ..........
7 .....hhf..
8 ......h.f.
9 .........t

Turn = 2.
  0123456789
0 .........r
1 .t........
2 r.tt......
3 ..ftt.....
4 ....hf..rr
5 .....t....
6 ..h.......
7 .....hhf..
8 ......h.f.
9 .........t

Turn = 3.
  0123456789
0 .........r
1 .t........
2 ..tt......
3 r.ttt....r
4 ....tf..r.
5 .....t....
6 ..........
7 ..h..hhf..
8 ......h.f.
9 .........t

Turn = 4.
  0123456789
0 ..........
1 .t.......r
2 ..tt.....r
3 ..ttt.....
4 r...tt....
5 .....t..r.
6 ..........
7 .....hhf..
8 ..h...h.f.
9 .........t

Turn = 5.
  0123456789
0 ..........
1 .t.......r
2 ..tt.....r
3 ..ttt.....
4 ....tt....
5 r....t....
6 ........r.
7 .....hhf..
8 ......h.f.
9 ..h......t

*** Darwin 15x15 ***
Turn = 0.
  012345678901234
0 rfrhthhffthf...
1 rhfttttfffff...
2 rrrrttthhhhh...
3 hffffrrrrhhf...
4 rttttttrrrff...
5 frtrhhhhhhrf...
6 rrrrrrrrrfff...
7 rrfffffftttt...
8 tttrfhtffffr...
9 frrrrrrfffff...
0 hhhhhhhhhhrr...
1 hhfffffffttt...
2 ..........h.t..
3 ...........f...
4 r...........r.h

Turn = 7.
  012345678901234
0 rrrrrrtttttf...
1 rrrrrrtttttr...
2 rrrrrrtttttr.rr
3 rrrrrrtrtr....r
4 rrrrrrrrrr....r
5 rrrrrrrrrr.r..r
6 rrrrrrrrtrrr...
7 trrrrrrttttt...
8 rrtrrrttttt....
9 ttttrrrrtrtf.r.
0 .tttttrrr.r..rr
1 .tt..r.rr.tt..r
2 ...r......t.t.r
3 h.r........f...
4 h...r..r.r.....

Turn = 14.
  012345678901234
0 rrrrrtttttttt.r
1 rrrrrrrrrttt.r.
2 rrrrrrrrrrtt.rr
3 rrrrrrrrrr.r...
4 rrrrrrrrrr.....
5 rrrrrrrr.r....r
6 rrrrrrrrrrtt..r
7 rtrrrrrrtttt...
8 rtttrrrrrtt....
9 trtttttr.tttt..
0 .rttrrr.r.t.t..
1 .rt......tttt..
2 ..r.......t.tt.
3 ....r..r...f...
4 rr.r..rr..rr..r

Turn = 21.
  012345678901234
0 rrrrrrrrrtttttt
1 rrrrrrrrrtttt..
2 rrrrrrrrrrrrt..
3 rrrrrrrrrrr....
4 rrrrrrrrr....r.
5 rrrrrrrrr.rtt.r
6 rrrrrrr.rtrrt..
7 rrrtrr...tt....
8 .rttttt.rrtt.r.
9 .rttttt..tttt..
0 rrttttr...t.t..
1 ..t...r.ttrtt..
2 r........ttrrrr
3 r......r....rr.
4 rr...rr.r...rr.

*** Darwin 10x12 ***
Turn = 0.
  012345678901
0 ..........hf
1 rhfttt.....f
2 rrrrt.......
3 ...ffrrrrh..
4 .ttttttrrrff
5 frtrhhhhhhrf
6 rrrrrrrrrfff
7 rrfffff.....
8 tttrfhtff...
9 ..rr.rrfff.h

Turn = 12.
  012345678901
0 rrr..rrr.rr.
1 rrrrtr.r.rr.
2 rrrtt.r....r
3 r.rtrrrr.r..
4 .rrt.rrrr..r
5 .rrrrt.r...r
6 r.rrrt..rrr.
7 r.rrrt..r.rr
8 rr..rrrrtr..
9 r.r..rrrtrrr

Turn = 24.
  012345678901
0 rrrrrrr.....
1 rrr..rr...r.
2 rrrrrrrrrr.r
3 rrrr.r.r.r..
4 .rr...rrr.r.
5 rr.r.rrrr.rr
6 rrrrrr.rr..r
7 rrr.rrrrr...
8 rr...rrrrr..
9 rrrrrrrr..rr

Turn = 36.
  012345678901
0 rrrr.r..r.rr
1 rrrrrr..r.rr
2 rrrrrrrrrrr.
3 r.rrrr....r.
4 rrrrrr...r.r
5 r.r.r.....r.
6 rr.rrrrr...r
7 rrrrrrr...r.
8 rr..rr.rr.rr
9 rrrrrrrrr..r

Turn = 48.
  012345678901
0 rrrrrrrr.rrr
1 rrrrrrr.r..r
2 rr.rrrrr.r..
3 rrrrrrr.rr..
4 rr...rrr....
5 rrrrrrrr....
6 .rr.rrr.rrrr
7 .r.rrrr.rr.r
8 r.rr.rrrr.rr
9 .r.r.rr.....

Turn = 60.
  012345678901
0 rrrrrr...r.r
1 rrrrrrrrrr.r
2 rrrrrrrrrrrr
3 rrrrrrr.....
4 rrrr.r.r..r.
5 rrrrrr.....r
6 rrrrrrrrrr.r
7 rr..rr......
8 rrrrrrr.....
9 .r.rr....rrr

*** Darwin 14x14 ***
Turn = 0.
  01234567890123
0 ..........hf.r
1 rhfttt.....f.t
2 rrrrt.........
3 ...ffrrrrh....
4 .ttttttrrrff..
5 frtrhhhhhhrf..
6 rrrrrrrrrfff..
7 rrfffff.......
8 tttrfhtff.....
9 ..rr.rrfff.h..
0 ...h.f.h..hr.r
1 ..f....h.t.h.t
2 ....r.th.r..t.
3 .....f..f.....

Turn = 2.
  01234567890123
0 .r........hf.r
1 rrftttrrr..fr.
2 ...tt..r..r...
3 r.trfrr..hr...
4 rrrrtrh.rr.f..
5 f.rrrr.rrr.f..
6 rrrrrrrrrrff..
7 rrrrfrr.......
8 ttrrfhttf..r..
9 r...rr.tffh...
0 ....hr...h...r
1 ..f...r.hth...
2 ......t.tth.tr
3 ....rf..f.....

Turn = 4.
  01234567890123
0 ..r...rrr.rrr.
1 .r.tttrr..rrr.
2 rrrtt.h...r...
3 r.tttr...r....
4 rrttt.r.rr.f..
5 r.r.rrrrrr.r..
6 rrrrttr..rrr..
7 rrrrrrr.r..r..
8 r.r.fhrtr.....
9 .r.rr.rrrfh...
0 r...rr.....h..
1 ..f.....rtt..r
2 ......rrrt..t.
3 ..r..f..f.h..r

Turn = 6.
  01234567890123
0 .r..r.tr.rrrr.
1 ..ttttrr.r.r..
2 rrrtt.h....r..
3 r.trr..rr...r.
4 r.rrtr.rr.rr..
5 rrrtr.rrr.rr..
6 rrrrrrr.r...r.
7 rrr.rrrr.r....
8 .r..rrrtrr....
9 ....rr.rrrh...
0 .....rr..r...h
1 .rfr.....rt...
2 r.......rr..tr
3 r....frrf.h..r

Turn = 8.
  01234567890123
0 rr...trr.rrrr.
1 ..tttttrr....r
2 r.rrtrtr..r...
3 .rrrt...rr.r..
4 rrrr.rr...r.r.
5 rrrrrrrrr..r.r
6 rrrrrr....r..r
7 r..rrrrrr.....
8 ..r.rr.rr.r...
9 ....rr.rrrh...
0 ......r.r....h
1 ..f......r....
2 r....rr.rrr.tt
3 rr.r.frrr.h..t

*** Darwin 17x15 ***
Turn = 0.
  012345678901234
0 rfrhth.........
1 ....tttfffff...
2 rrrrttt........
3 .....rrrr......
4 .......rrrff...
5 frtrhhhhhhrf...
6 rrrrrrrrrfff...
7 rrfffffftttt...
8 tttrfhtffffr...
9 frrr......ff...
0 .........hrr...
1 .....ffffttt...
2 ..........h.t..
3 ...........f...
4 r...........r.h
5 ...............
6 ...............

Turn = 6.
  012345678901234
0 r..ttt..r.r....
1 rrr.ttr.rrrf...
2 .rrrrtr.rr.....
3 ..r.rrrrr....r.
4 r..r.rr....t...
5 rrrrr.rrrt.t...
6 rr..rrrrrttt..r
7 .tr..rrrrttt...
8 tttrr.rrrtt....
9 ttttt..r...f...
0 ........ttt...r
1 .....ffttttt..r
2 ..........t.t..
3 ...........f...
4 ......r........
5 ...............
6 .........r.....

Turn = 12.
  012345678901234
0 r.rrrrtr....r.r
1 .rrrrtrrr..f.r.
2 .rrr..rr..r..rr
3 .rrrr..r.....r.
4 rrrrr..rr.rt...
5 .rrrr.r....r..r
6 rr.r..r..rtr...
7 rrrrrr...rtt...
8 rrr.rr..rrt....
9 tt..r..r..tf...
0 ..r...r..tt....
1 .....rrttttt...
2 ...r......t.t..
3 ....rr.....f...
4 ............r..
5 ...............
6 ...r....r.....r

Turn = 18.
  012345678901234
0 r.rrrrr......rr
1 .rrrrrr..rr..rr
2 rrrrrrr...r.r..
3 .rr.rr..r.rr...
4 rrrr.r.r..r.r.r
5 r.rr.r.........
6 rrrrr.rrr.rr...
7 rrrrr...r..r...
8 r.rr...rr..r..r
9 r.......t.tt...
0 ........t.t....
1 ...r...ttttt...
2 ..........t.t..
3 .r...r.....f...
4 r..............
5 rr...rr........
6 ..rrr.r..rr...r

Turn = 24.
  012345678901234
0 r.rrrrr.rrrr...
1 ..rrrr..r.r.r..
2 r.rrrrrr...rr..
3 rrrrrrrr.......
4 rrrrr..r.r.....
5 rrrr..rr.....rr
6 rrrrr..r...r..r
7 r..r...........
8 rrr.....r.t....
9 r......tt.ttt..
0 .r......t.t....
1 ...r...ttttt...
2 .rr..r....t.t.r
3 .rr.r......f..r
4 rr.......r.....
5 .r..........r..
6 rrrrr..........

Turn = 30.
  012345678901234
0 rrrrr.r.rr....r
1 rrrrrrr....r.r.
2 rr.rr....r..r.r
3 rrrrrrrr...rr..
4 rrrr..r........
5 rrr............
6 r....rr........
7 r.r.rr..r.....r
8 .r..rr..tttr...
9 rrr...rtt.tttt.
0 rr.r....t.t....
1 r...r.rttttt.r.
2 r.r....r..t.t..
3 r..r....r..f...
4 .r.............
5 r.r...r........
6 r..r........rr.
